[gd_scene load_steps=4 format=2]

[ext_resource path="res://Entities/Enemy.gd" type="Script" id=1]
[ext_resource path="res://Assets-64x64/test-trash.png" type="Texture" id=2]

[sub_resource type="SpriteFrames" id=1]
animations = [ {
"frames": [ ExtResource( 2 ) ],
"loop": true,
"name": "idle",
"speed": 5.0
} ]

[node name="Enemy" type="KinematicBody2D" groups=[
"Enemy",
]]
collision_layer = 2
collision_mask = 5
script = ExtResource( 1 )

[node name="AnimatedSprite" type="AnimatedSprite" parent="."]
position = Vector2( -51.787, -55.4978 )
scale = Vector2( 0.1, 0.1 )
frames = SubResource( 1 )
animation = "idle"
centered = false

[node name="CollisionPolygon2D" type="CollisionPolygon2D" parent="."]
position = Vector2( -734, -295 )
polygon = PoolVector2Array( 680.243, 298.358, 702.05, 267.718, 724.409, 256.4, 717.508, 250.051, 718.06, 243.15, 727.446, 238.182, 738.763, 239.01, 746.493, 246.463, 746.216, 258.056, 770.508, 272.686, 787.346, 293.389, 787.07, 314.092, 780.169, 326.514, 750.909, 341.696, 714.472, 340.868, 681.071, 321.269 )

[node name="hitbox" type="Area2D" parent="."]
position = Vector2( 0, -1 )
scale = Vector2( 1.1, 1 )
collision_layer = 2
collision_mask = 5

[node name="CollisionPolygon2D2" type="CollisionPolygon2D" parent="hitbox"]
position = Vector2( -734, -295 )
polygon = PoolVector2Array( 680.243, 298.358, 702.05, 267.718, 724.409, 256.4, 717.508, 250.051, 718.06, 243.15, 727.446, 238.182, 738.763, 239.01, 746.493, 246.463, 746.216, 258.056, 770.508, 272.686, 787.346, 293.389, 787.07, 314.092, 780.169, 326.514, 750.909, 341.696, 714.472, 340.868, 681.071, 321.269 )
