[gd_scene load_steps=7 format=2]

[ext_resource path="res://weapons/bullet/circle.png" type="Texture" id=1]

[sub_resource type="Gradient" id=1]

offsets = PoolRealArray( 0, 0.0613811, 0.893491, 1 )
colors = PoolColorArray( 1, 0.846985, 0.148438, 0, 1, 0.87854, 0.222656, 1, 1, 0.796875, 0, 1, 0.964844, 0.452271, 0, 0 )

[sub_resource type="GradientTexture" id=2]

flags = 4
gradient = SubResource( 1 )
width = 2048

[sub_resource type="Curve" id=3]

min_value = 0.0
max_value = 1.0
bake_resolution = 100
_data = [ Vector2( 0, 0.399763 ), 0.0, 0.0, 0, 0, Vector2( 1, 1 ), 0.0, 0.0, 0, 0 ]

[sub_resource type="CurveTexture" id=4]

flags = 4
width = 2048
curve = SubResource( 3 )

[sub_resource type="ParticlesMaterial" id=5]

render_priority = 0
trail_divisor = 1
emission_shape = 1
emission_sphere_radius = 10.0
flag_align_y = false
flag_rotate_y = false
flag_disable_z = true
spread = 180.0
flatness = 0.0
gravity = Vector3( 0, 800, 0 )
initial_velocity = 380.0
initial_velocity_random = 0.6
angular_velocity = 0.0
angular_velocity_random = 0.0
orbit_velocity = 0.0
orbit_velocity_random = 1.0
linear_accel = 0.0
linear_accel_random = 0.0
radial_accel = 0.0
radial_accel_random = 0.0
tangential_accel = 0.0
tangential_accel_random = 0.0
damping = 0.0
damping_random = 0.0
angle = 0.0
angle_random = 0.0
scale = 0.03
scale_random = 0.02
scale_curve = SubResource( 4 )
color_ramp = SubResource( 2 )
hue_variation = 0.0
hue_variation_random = 0.0
anim_speed = 0.0
anim_speed_random = 0.0
anim_offset = 0.0
anim_offset_random = 0.0
anim_loop = false
_sections_unfolded = [ "Color", "Initial Velocity", "Scale" ]

[node name="ImpactSparkles" type="Particles2D" index="0"]

rotation = -1.56849
emitting = false
amount = 30
lifetime = 0.4
one_shot = true
preprocess = 0.0
speed_scale = 1.0
explosiveness = 0.9
randomness = 1.0
fixed_fps = 0
fract_delta = true
visibility_rect = Rect2( -400, -400, 800, 800 )
local_coords = false
draw_order = 0
process_material = SubResource( 5 )
texture = ExtResource( 1 )
normal_map = null
h_frames = 1
v_frames = 1
_sections_unfolded = [ "Drawing", "Process Material", "Time" ]


