[gd_scene load_steps=2 format=2]

[ext_resource path="res://new_map_new.tscn" type="PackedScene" id=1]

[node name="Node" type="Node"]

[node name="Viewports" type="HBoxContainer" parent="."]
margin_right = 1280.0
margin_bottom = 720.0

[node name="ViewportContainer2" type="ViewportContainer" parent="Viewports"]
margin_right = 638.0
margin_bottom = 720.0
size_flags_horizontal = 3

[node name="Viewport2" type="Viewport" parent="Viewports/ViewportContainer2"]
handle_input_locally = false
render_target_update_mode = 3

[node name="Camera2D2" type="Camera2D" parent="Viewports/ViewportContainer2/Viewport2"]
position = Vector2( 642, 0 )
current = true

[node name="ViewportContainer1" type="ViewportContainer" parent="Viewports"]
margin_left = 642.0
margin_right = 1280.0
margin_bottom = 720.0
size_flags_horizontal = 3

[node name="Viewport1" type="Viewport" parent="Viewports/ViewportContainer1"]
handle_input_locally = false
render_target_update_mode = 3

[node name="Node2D" parent="Viewports/ViewportContainer1/Viewport1" instance=ExtResource( 1 )]

[node name="Camera2D1" type="Camera2D" parent="Viewports/ViewportContainer1/Viewport1"]
current = true
