[gd_scene load_steps=5 format=2]

[ext_resource path="res://Truck.gd" type="Script" id=1]
[ext_resource path="res://truck-final.png" type="Texture" id=2]
[ext_resource path="res://horn_01.ogg" type="AudioStream" id=3]

[sub_resource type="RectangleShape2D" id=1]
extents = Vector2( 357.843, 1808.23 )

[node name="truck" type="Area2D" groups=[
"truck",
]]
position = Vector2( -1043.2, -1151.5 )
scale = Vector2( 0.5, 0.5 )
script = ExtResource( 1 )

[node name="truck-final2" type="Sprite" parent="."]
position = Vector2( 2450.77, 2639.91 )
scale = Vector2( 2.26272, 3.52931 )
texture = ExtResource( 2 )
offset = Vector2( -48.8426, -33.1624 )

[node name="killbill" type="CollisionShape2D" parent="."]
position = Vector2( 2309.86, 2483.08 )
scale = Vector2( 0.5, 0.5 )
shape = SubResource( 1 )

[node name="truck" type="AudioStreamPlayer2D" parent="."]
stream = ExtResource( 3 )
volume_db = 20.392
[connection signal="area_entered" from="." to="." method="_on_truck_area_entered"]
